<?xml version="1.0" encoding="UTF-8"?>
<svg width="124px" height="30px" viewBox="0 0 124 30" version="1.1" xmlns="http://www.w3.org/2000/svg" xmlns:xlink="http://www.w3.org/1999/xlink">
    <!-- Generator: Sketch 57.1 (83088) - https://sketch.com -->
    <title>Group</title>
    <desc>Created with Sketch.</desc>
    <g id="Symbols" stroke="none" stroke-width="1" fill="none" fill-rule="evenodd">
        <g id="menu" transform="translate(-73.000000, -27.000000)">
            <g id="Group" transform="translate(73.000000, 27.000000)">
                <g id="Group-3">
                    <g id="Group-8" fill="#FF4D3D">
                        <g id="Group-6">
                            <path d="M13.5230991,8.23890529 C14.2515519,8.23890529 14.823976,7.64843576 14.823976,6.8971599 C14.823976,6.14574298 14.2515519,5.55555556 13.5230991,5.55555556 C12.7947831,5.55555556 12.2222222,6.14588403 12.2222222,6.8971599 C12.222359,7.64843576 12.7947831,8.23890529 13.5230991,8.23890529 Z" id="Shape"></path>
                            <g id="Group-2">
                                <path d="M5.28543657,9.31288147 L5.28543657,6.14659374 C5.28543657,2.52642204 5.77663281,1.88928136 6.80855767,1.88928136 L8.11984522,1.88928136 C8.11984522,1.88928136 8.28313701,1.60894628 8.28313701,0.964822764 C8.28313701,0.320869565 8.11984522,0.0752783163 8.11984522,0.0752783163 L8.03547505,0.0681251731 C7.84939836,0.0521157574 7.20481681,0 6.74267958,0 C5.33579451,0 4.42637977,0.484369981 3.8806979,1.52430075 C3.40271031,2.43530462 3.18955591,3.80836749 3.18955591,5.97679175 L3.18955591,9.51691637 C3.18955591,11.5831529 2.67937226,14.0463888 0.249147938,14.0463888 L0.157347903,14.0463888 C0.157347903,14.0463888 0,14.3369427 0,14.8548643 C0,15.3729562 0.157347903,15.6635101 0.157347903,15.6635101 L0.249313046,15.6635101 C2.67953737,15.6635101 3.18972102,18.1267461 3.18972102,20.1929826 L3.18972102,23.8714013 C3.18972102,27.7477236 3.75587627,29.848193 6.74284469,29.848193 C7.11466786,29.848193 7.65440583,29.8129382 8.03597037,29.7798975 L8.12001033,29.7725741 C8.12001033,29.7725741 8.28330212,29.4259873 8.28330212,28.843517 C8.28330212,28.2608765 8.12001033,27.9587413 8.12001033,27.9587413 L6.80872277,27.9587413 C5.77679791,27.9587413 5.28560168,27.321771 5.28560168,23.7015993 L5.28560168,20.3975284 C5.28560168,17.2527001 4.4209312,15.3910094 2.71421004,14.8552049 C4.42060099,14.3190598 5.28543657,12.4570285 5.28543657,9.31288147 Z" id="Shape"></path>
                                <path d="M14.301585,10.5555556 L10.1514309,10.5582806 C10.1514309,10.5582806 10.006301,10.8101734 10.000192,11.192015 C9.99375278,11.5736863 10.1514309,11.8737777 10.1514309,11.8737777 L13.0725212,12.1781269 L13.0725212,26.9522628 C13.0725212,26.9522628 13.4388958,27.1031601 14.1031252,27.1031601 C14.7671895,27.1031601 15.0827109,26.9522628 15.0827109,26.9522628 L15.0837015,11.3623279 C15.0838666,10.916619 14.7333424,10.5555556 14.301585,10.5555556 Z" id="Shape"></path>
                                <path d="M35.1095919,2.81916905 C35.1095919,2.39219453 35.0138293,2.22222222 35.0138293,2.22222222 L31.5761161,2.22222222 L31.5782625,2.22579879 C31.5776021,2.22579879 31.5767765,2.22562848 31.575951,2.22562848 C31.1441936,2.22562848 30.7939996,2.5866919 30.7936694,3.03206022 L30.7931741,3.03257116 L30.7931741,10.3902602 C29.4110552,10.0988547 28.1549137,9.96890597 26.8040002,9.96890597 C21.2763502,9.96890597 18.8888889,14.1485556 18.8888889,18.878827 C18.8888889,23.2204443 20.7106903,26.8814911 24.9196229,26.8814911 C27.6207894,26.8814911 29.285408,25.7478882 31.0130979,23.8035958 L31.2328566,26.5250262 C31.2328566,26.5250262 31.4433693,26.6989157 31.9779889,26.6989157 C32.5537204,26.6989157 32.8033637,26.5250262 32.8033637,26.5250262 L32.8033637,3.78552463 L35.0139944,3.41867057 C35.0138293,3.41884089 35.1095919,3.24631389 35.1095919,2.81916905 Z M30.7931741,21.7623953 C28.8772611,24.1278716 27.2435177,25.1645664 25.2336582,25.1645664 C22.0614387,25.1645664 21.0560962,21.7950954 21.0560962,18.7817487 C21.0560962,14.3106936 22.8778976,11.5889226 26.6157771,11.5889226 C28.1547486,11.5889226 29.5994434,11.8804983 30.7931741,12.3340417 L30.7931741,21.7623953 Z" id="Shape"></path>
                                <path d="M51.0663938,25.5550208 L48.9166879,25.1304306 L48.9166879,15.4428607 C48.9166879,12.7539601 47.6603813,10 43.2627304,10 C41.2563382,10 39.3118616,10.4073885 37.8739362,10.9440446 C37.5438854,11.0380573 37.2998558,11.3466644 37.2993604,11.717095 L37.2958932,11.7187981 L37.2965536,15.0758363 C37.2965536,15.0758363 37.5357951,15.2028898 37.890447,15.2028898 C38.2447687,15.2028898 38.4845055,15.0746441 38.4845055,15.0746441 L38.890506,12.476861 C40.1481335,12.0415411 41.541975,11.7821545 42.8232129,11.7821545 C45.8697853,11.7821545 46.9064983,13.2078441 46.9064983,16.1884907 L46.9064983,17.4196829 L43.577096,17.4196829 C39.6509934,17.4196829 36.6666667,19.0071698 36.6666667,22.3768111 C36.6666667,25.3898172 38.5512091,27.1069122 41.9435176,27.1069122 C43.9540375,27.1069122 45.3985672,26.5237607 47.1264221,25.0011631 L47.2548762,26.0453517 C47.3075456,26.4595528 47.6400731,26.7518097 48.0328649,26.7501066 L48.0333603,26.7504472 L48.9166879,26.7504472 L51.0663938,26.7502769 C51.0663938,26.7502769 51.173714,26.5196732 51.173714,26.1577582 C51.173714,25.795162 51.0663938,25.5550208 51.0663938,25.5550208 Z M46.9066634,23.3162573 C45.4302679,24.5476198 44.0795195,25.3899875 42.1325663,25.3899875 C39.9965644,25.3899875 38.8971103,24.1911548 38.8971103,22.2795624 C38.8971103,20.2705511 40.4677825,19.1042481 43.639837,19.1042481 L46.9066634,19.1042481 L46.9066634,23.3162573 Z" id="Shape"></path>
                            </g>
                        </g>
                    </g>
                    <path d="M58.025641,26.5737934 L58.025641,9.91269308 L63.9031691,9.91269308 C65.0070388,9.91269308 65.9464104,10.0194206 66.7213123,10.232879 C67.4962141,10.4463373 68.1285538,10.7474614 68.6183503,11.1362605 C69.1081467,11.5250596 69.4645231,11.9977102 69.6874902,12.5542265 C69.9104572,13.1107428 70.0219391,13.7320496 70.0219391,14.4181656 C70.0219391,14.7917177 69.9707671,15.1519232 69.8684216,15.498793 C69.766076,15.8456627 69.6052497,16.1715629 69.3859379,16.4765034 C69.1666261,16.7814438 68.8851801,17.0577919 68.5415915,17.3055561 C68.198003,17.5533202 67.7849718,17.7686811 67.3024858,17.9516454 C68.3551826,18.2184683 69.133728,18.6510961 69.6381453,19.2495417 C70.1425625,19.8479873 70.3947674,20.6160445 70.3947674,21.5537364 C70.3947674,22.2627229 70.2631822,22.9221468 70.000008,23.5320277 C69.7368338,24.1419086 69.3512162,24.6736405 68.8431438,25.1272394 C68.3350713,25.5808383 67.7082144,25.9353263 66.9625541,26.1907139 C66.2168938,26.4461015 65.3652456,26.5737934 64.4075839,26.5737934 L58.025641,26.5737934 Z M61.7319927,19.5068339 L61.7319927,23.657815 L64.3417906,23.657815 C64.8315871,23.657815 65.2318252,23.5930161 65.542517,23.4634164 C65.8532088,23.3338167 66.0962758,23.166102 66.2717252,22.9602672 C66.4471747,22.7544324 66.5677944,22.5219188 66.633588,22.2627194 C66.6993815,22.00352 66.7322778,21.7405128 66.7322778,21.4736899 C66.7322778,21.1687495 66.6938988,20.8943072 66.6171397,20.6503549 C66.5403805,20.4064025 66.4087954,20.2005708 66.2223803,20.0328535 C66.0359653,19.8651363 65.7892431,19.7355385 65.4822065,19.6440564 C65.17517,19.5525743 64.7877248,19.5068339 64.3198596,19.5068339 L61.7319927,19.5068339 Z M61.7319927,16.9224765 L63.6619273,16.9224765 C64.0713094,16.9224765 64.4404788,16.891983 64.7694466,16.8309949 C65.0984144,16.7700068 65.3780328,16.6632792 65.6083102,16.510809 C65.8385877,16.3583388 66.0140345,16.1486954 66.134656,15.8818725 C66.2552775,15.6150496 66.3155874,15.2796201 66.3155874,14.875574 C66.3155874,14.4791514 66.2680705,14.1494395 66.1730354,13.8864284 C66.0780003,13.6234173 65.9317946,13.411868 65.7344139,13.2517743 C65.5370332,13.0916805 65.286656,12.9773296 64.9832746,12.908718 C64.6798932,12.8401064 64.3198616,12.8058011 63.9031691,12.8058011 L61.7319927,12.8058011 L61.7319927,16.9224765 Z M79.4761275,23.4862868 L85.3975178,23.4862868 L85.3975178,26.5737934 L75.7697758,26.5737934 L75.7697758,9.91269308 L79.4761275,9.91269308 L79.4761275,23.4862868 Z M105.400553,18.2375256 C105.400553,19.4420404 105.201348,20.5626797 104.802931,21.5994772 C104.404515,22.6362748 103.843451,23.5377414 103.119721,24.3039043 C102.395992,25.0700672 101.524241,25.6704097 100.504441,26.1049498 C99.4846407,26.5394899 98.353374,26.7567568 97.1106069,26.7567568 C95.8678398,26.7567568 94.7347456,26.5394899 93.7112903,26.1049498 C92.687835,25.6704097 91.8124283,25.0700672 91.085044,24.3039043 C90.3576598,23.5377414 89.7947678,22.6362748 89.3963513,21.5994772 C88.9979347,20.5626797 88.7987295,19.4420404 88.7987295,18.2375256 C88.7987295,17.0330109 88.9979347,15.9123715 89.3963513,14.875574 C89.7947678,13.8387765 90.3576598,12.9392157 91.085044,12.1768646 C91.8124283,11.4145135 92.687835,10.8160768 93.7112903,10.3815367 C94.7347456,9.94699654 95.8678398,9.72972973 97.1106069,9.72972973 C98.353374,9.72972973 99.4846407,9.94890239 100.504441,10.3872543 C101.524241,10.8256062 102.395992,11.4259487 103.119721,12.1882998 C103.843451,12.9506509 104.404515,13.8502117 104.802931,14.8870092 C105.201348,15.9238068 105.400553,17.0406344 105.400553,18.2375256 Z M101.606477,18.2375256 C101.606477,17.4141864 101.504133,16.6728111 101.299442,16.0133774 C101.094751,15.3539437 100.800512,14.7955298 100.416716,14.3381192 C100.032921,13.8807085 99.5632349,13.5300323 99.0076449,13.2860799 C98.4520549,13.0421275 97.8197152,12.9201532 97.1106069,12.9201532 C96.3941882,12.9201532 95.7563658,13.0421275 95.1971206,13.2860799 C94.6378754,13.5300323 94.166362,13.8807085 93.7825663,14.3381192 C93.3987705,14.7955298 93.1045316,15.3539437 92.8998405,16.0133774 C92.6951494,16.6728111 92.5928055,17.4141864 92.5928055,18.2375256 C92.5928055,19.0684884 92.6951494,19.8136754 92.8998405,20.4731091 C93.1045316,21.1325428 93.3987705,21.6909566 93.7825663,22.1483673 C94.166362,22.605778 94.6378754,22.9545484 95.1971206,23.194689 C95.7563658,23.4348296 96.3941882,23.5548981 97.1106069,23.5548981 C97.8197152,23.5548981 98.4520549,23.4348296 99.0076449,23.194689 C99.5632349,22.9545484 100.032921,22.605778 100.416716,22.1483673 C100.800512,21.6909566 101.094751,21.1325428 101.299442,20.4731091 C101.504133,19.8136754 101.606477,19.0684884 101.606477,18.2375256 Z M118.056679,23.7836023 C118.568406,23.7836023 119.021644,23.7378619 119.416405,23.6463798 C119.811167,23.5548976 120.183991,23.4329233 120.53489,23.2804531 L120.53489,20.7532717 L118.955853,20.7532717 C118.72192,20.7532717 118.539163,20.6884729 118.407576,20.5588732 C118.275989,20.4292735 118.210196,20.2653705 118.210196,20.0671592 L118.210196,17.9402102 L123.890345,17.9402102 L123.890345,24.9728641 C123.480963,25.285428 123.055138,25.5541528 122.61286,25.7790463 C122.170581,26.0039399 121.699067,26.1888073 121.198305,26.333654 C120.697543,26.4785007 120.163892,26.5852283 119.597337,26.6538399 C119.030781,26.7224515 118.4222,26.7567568 117.771575,26.7567568 C116.601912,26.7567568 115.519989,26.5413958 114.525776,26.1106674 C113.531562,25.679939 112.670776,25.0853141 111.943391,24.3267747 C111.216007,23.5682354 110.645805,22.6686745 110.232768,21.6280653 C109.81973,20.587456 109.613215,19.4572874 109.613215,18.2375256 C109.613215,16.9948933 109.810592,15.8532896 110.205354,14.8126804 C110.600115,13.7720711 111.164835,12.8744161 111.899529,12.1196885 C112.634224,11.3649609 113.522424,10.7779594 114.564155,10.3586663 C115.605886,9.93937314 116.770049,9.72972973 118.056679,9.72972973 C118.721925,9.72972973 119.346954,9.78690521 119.931786,9.90125787 C120.516617,10.0156105 121.055751,10.1718902 121.549202,10.3701015 C122.042654,10.5683128 122.494064,10.8046381 122.903446,11.0790845 C123.312828,11.3535309 123.678343,11.6508433 124,11.9710308 L122.925377,13.674877 C122.823032,13.8349708 122.700585,13.9607568 122.558032,14.0522389 C122.415479,14.1437211 122.260136,14.1894615 122.091996,14.1894615 C121.872685,14.1894615 121.646066,14.1132275 121.412133,13.9607573 C121.119717,13.777793 120.843754,13.6196075 120.584235,13.4861961 C120.324716,13.3527846 120.059718,13.2441512 119.789234,13.1602926 C119.518749,13.076434 119.233648,13.0154468 118.933922,12.9773292 C118.634195,12.9392117 118.297922,12.9201532 117.925092,12.9201532 C117.230605,12.9201532 116.605575,13.0478451 116.049985,13.3032327 C115.494395,13.5586203 115.021054,13.9188258 114.629948,14.38386 C114.238842,14.8488942 113.937293,15.407308 113.725291,16.0591182 C113.51329,16.7109284 113.407291,17.437057 113.407291,18.2375256 C113.407291,19.1218529 113.524255,19.9070628 113.758188,20.5931788 C113.992121,21.2792948 114.315601,21.858673 114.728638,22.3313307 C115.141675,22.8039884 115.631464,23.1641938 116.19802,23.411958 C116.764576,23.6597221 117.384122,23.7836023 118.056679,23.7836023 Z" id="BLOG" fill="#4A4A4A"></path>
                </g>
            </g>
        </g>
    </g>
</svg>