<?xml version="1.0" encoding="UTF-8"?>
<svg width="40px" height="40px" viewBox="0 0 40 40" version="1.1" xmlns="http://www.w3.org/2000/svg" xmlns:xlink="http://www.w3.org/1999/xlink">
    <!-- Generator: Sketch 51.3 (57544) - http://www.bohemiancoding.com/sketch -->
    <title>input-error</title>
    <desc>Created with Sketch.</desc>
    <defs></defs>
    <g id="input-error" stroke="none" stroke-width="1" fill="none" fill-rule="evenodd" font-family="simple-line-icons" font-size="20" font-weight="normal">
        <text id="Close---simple-line-icons" fill="#D0021B">
            <tspan x="10" y="29"></tspan>
        </text>
    </g>
</svg>